UVM_project/8b10b/b.vcd
$date
	Tue May 11 01:28:00 2021
$end

$version
	Synopsys VCS version R-2020.12
$end

$timescale
	1ps
$end

$comment Csum: 1 d7b8b9030b4337e9 $end


$scope module $unit $end
$upscope $end


$scope module b8_pkg $end
$upscope $end


$scope module top $end
$var reg 1 ! clk $end

$scope begin unnamed$$_vcs_3 $end
$upscope $end


$scope begin unnamed$$_vcs_0 $end
$upscope $end


$scope begin unnamed$$_vcs_1 $end
$upscope $end


$scope begin unnamed$$_vcs_2 $end
$upscope $end


$scope module intf $end
$var reg 1 " clk $end
$var reg 1 # pushin $end
$var reg 1 $ startin $end
$var reg 1 % reset $end
$var reg 9 & datain [8:0] $end
$var reg 10 ' dataout [9:0] $end
$var reg 1 ( pushout $end
$var reg 1 ) startout $end
$upscope $end


$scope module encoder $end
$var reg 1 * din_dirty_d $end
$var reg 1 + din_dirty $end
$var reg 9 , din_d [8:0] $end
$var reg 9 - din [8:0] $end
$var reg 10 . dout_d [9:0] $end
$var reg 8 / b6_encode [7:0] $end
$var reg 6 0 b4_encode [5:0] $end
$var reg 32 1 crc_out [31:0] $end
$var reg 32 2 crc_out_d [31:0] $end
$var reg 32 3 crc_in [31:0] $end
$var reg 2 4 crc_count [1:0] $end
$var reg 2 5 crc_count_d [1:0] $end
$var reg 11 6 count [10:0] $end
$var reg 11 7 count_d [10:0] $end
$var reg 1 8 disp_in_d $end
$var reg 1 9 disp_out $end
$var reg 1 : crc_en $end
$var reg 1 ; disp_in $end
$var reg 3 < PS [2:0] $end
$var reg 3 = NS [2:0] $end
$var reg 1 > pushout_d $end
$var reg 1 ? startout_d $end
$upscope $end

$upscope $end


$scope module uvm_pkg $end
$var reg 32 @ UVM_UNBOUNDED_CONNECTIONS [31:0] $end
$var reg 1 A uvm_start_uvm_declarations $end
$var reg 32 B uvm_global_random_seed [31:0] $end
$upscope $end

$enddefinitions $end

#0
$dumpvars
1A
b11111111111111111111111111111111 @
b01000010000001111100110001000111 B
1!
b0000000000 '
b000000000 &
x:
0+
0*
0;
08
09
0>
0?
b000 =
b000 <
bxxxxxx 0
bxxxxxxxx /
b00000000000 6
b00000000000 7
b00 4
b00 5
b11111111111111111111111111111111 3
b11111111111111111111111111111111 1
b11111111111111111111111111111111 2
b000000000 -
b000000000 ,
b0000000000 .
0#
0(
1%
0$
0)
1"
$end
#1000
bxxxxxxxxx -
bxxxxxxxxxx '
x(
bxx 4
bxxxxxxxxxxxxxxxxxxxxxxxxxxxxxxxx 1
bxxxxxxxxxxx 6
bxxxxxxxxxxxxxxxxxxxxxxxxxxxxxxxx 3
x+
x)
x;
#5000
0!
0"
#10000
1!
1"
b000000000 -
b0000000000 '
0(
0)
b00 4
b11111111111111111111111111111111 1
b00000000000 6
b11111111111111111111111111111111 3
0+
0;
#11000
0%
1%
#15000
0!
0"
#20000
1!
1"
#21000
0%
1%
#25000
0!
0"
#30000
1!
1"
#31000
0%
1%
#35000
0!
0"
#40000
1!
1"
#41000
0%
1%
#45000
0!
0"
#50000
1!
1"
#51000
0%
1#
b100111100 &
1$
b001 =
b100111100 ,
#55000
0!
0"
#60000
1!
1"
b001 <
b00000000001 7
0:
1?
1>
b0010111001 .
b00101101111111010001000001110010 2
b110111 0
b11100111 /
#61000
b100111100 -
18
19
b1001111100 .
b11111111111111111111111111111111 2
b011010 0
b11110011 /
0$
#65000
0!
0"
#70000
1!
1"
#71000
b1001111100 '
1(
b00000000001 6
1)
1;
08
b00000000010 7
0?
09
b0110000011 .
#75000
0!
0"
#80000
1!
1"
#81000
b0110000011 '
b00000000010 6
0)
0;
18
b00000000011 7
19
b1001111100 .
#85000
0!
0"
#90000
1!
1"
#91000
0#
1*
b00000000000 7
b1001111100 '
b00000000011 6
1;
08
09
b0110000011 .
1#
b000000000 &
0*
b00000000100 7
b000000000 ,
#95000
0!
0"
#100000
1!
1"
#101000
b000000000 -
b0110000011 '
b00000000100 6
0;
b00000000101 7
b0010111001 .
b00101101111111010001000001110010 2
b110111 0
b11100111 /
#102000
0#
1*
b00000000000 7
1#
b111111011 &
0*
b00000000101 7
b111111011 ,
#105000
0!
0"
#110000
1!
1"
#111000
b111111011 -
b0010111001 '
b00101101111111010001000001110010 1
b00000000101 6
b00101101111111010001000001110010 3
b00000000110 7
b0001011011 .
b111011 0
b01101111 /
#112000
0#
1*
b00000000000 7
1#
b111111101 &
0*
b00000000110 7
b111111101 ,
#115000
0!
0"
#120000
1!
1"
#121000
b111111101 -
b0001011011 '
b00000000110 6
b00000000111 7
b0001011101 .
b01110111 /
#122000
0#
1*
b00000000000 7
1#
b101011100 &
0*
b00000000111 7
b101011100 ,
#125000
0!
0"
#130000
1!
1"
#131000
b101011100 -
b0001011101 '
b00000000111 6
18
b00000001000 7
19
b1010111100 .
b010110 0
b11110011 /
#132000
0#
1*
b00000000000 7
1#
b111111011 &
0*
b00000001000 7
b111111011 ,
#135000
0!
0"
#140000
1!
1"
#141000
b111111011 -
b1010111100 '
b00000001000 6
1;
b00000001001 7
b1110100100 .
b111011 0
b01101111 /
#142000
0#
1*
b00000000000 7
1#
b111111110 &
0*
b00000001001 7
b111111110 ,
#145000
0!
0"
#150000
1!
1"
#151000
b111111110 -
b1110100100 '
b00000001001 6
b00000001010 7
b1110100001 .
b01111011 /
#152000
0#
1*
b00000000000 7
1#
0*
b00000001010 7
#155000
0!
0"
#160000
1!
1"
#161000
b1110100001 '
b00000001010 6
b00000001011 7
#162000
0#
1*
b00000000000 7
1#
b111111101 &
0*
b00000001011 7
b111111101 ,
#165000
0!
0"
#170000
1!
1"
#171000
b111111101 -
b00000001011 6
b00000001100 7
b1110100010 .
b01110111 /
#172000
0#
1*
b00000000000 7
1#
b100011100 &
0*
b00000001100 7
b100011100 ,
#175000
0!
0"
#180000
1!
1"
#181000
b100011100 -
b1110100010 '
b00000001100 6
b00000001101 7
b1101000011 .
b110111 0
b11110011 /
#182000
0#
1*
b00000000000 7
1#
0*
b00000001101 7
#183000
0#
1*
b00000000000 7
1#
b011111101 &
0*
b00000001101 7
b011111101 ,
#185000
0!
0"
#190000
1!
1"
#191000
b001010110 &
b001010110 ,
b011111101 -
b1101000011 '
b00000001101 6
b00000001110 7
b0111100010 .
b01111101001010100110001110100001 2
b011111 0
b01110111 /
#195000
0!
0"
#200000
1!
1"
#201000
b011000011 &
b011000011 ,
b001010110 -
b0111100010 '
b01111101001010100110001110100001 1
b00000001110 6
b01111101001010100110001110100001 3
b00000001111 7
b1010010110 .
b00100011101001000100110111011100 2
b101000 0
b01011000 /
#205000
0!
0"
#210000
1!
1"
#211000
b011011011 &
b011011011 ,
b011000011 -
b1010010110 '
b00100011101001000100110111011100 1
b00000001111 6
b00100011101001000100110111011100 3
b00000010000 7
b0110100011 .
b10001101001010111010100110111000 2
b011000 0
b10001100 /
#215000
0!
0"
#220000
1!
1"
#221000
b000010110 &
b000010110 ,
b011011011 -
b0110100011 '
b10001101001010111010100110111000 1
b00000010000 6
b10001101001010111010100110111000 3
08
b00000010001 7
09
b0110100100 .
b11010100001101100001101101001011 2
b01101111 /
#225000
0!
0"
#230000
1!
1"
#231000
b000010110 -
b0110100100 '
b11010100001101100001101101001011 1
b00000010001 6
b11010100001101100001101101001011 3
0;
18
b00000010010 7
19
b1101010110 .
b00010101000011100001101101010010 2
b110111 0
b01011000 /
#232000
0#
1*
b00000000000 7
1#
b010000101 &
0*
b00000010010 7
b010000101 ,
#235000
0!
0"
#240000
1!
1"
#241000
b000001100 &
b000001100 ,
b010000101 -
b1101010110 '
b00010101000011100001101101010010 1
b00000010010 6
b00010101000011100001101101010010 3
1;
08
b00000010011 7
09
b0100100101 .
b00011000101000100100100101101100 2
b101111 0
b10010100 /
#245000
0!
0"
#250000
1!
1"
#251000
b001101100 &
b001101100 ,
b000001100 -
b0100100101 '
b00011000101000100100100101101100 1
b00000010011 6
b00011000101000100100100101101100 3
0;
18
b00000010100 7
19
b1101101100 .
b01001101101010101100001100010001 2
b110111 0
b10110000 /
#255000
0!
0"
#260000
1!
1"
#261000
b010111001 &
b010111001 ,
b001101100 -
b1101101100 '
b01001101101010101100001100010001 1
b00000010100 6
b01001101101010101100001100010001 3
1;
b00000010101 7
b1100101100 .
b00101110111110011010011101000010 2
b001110 0
#265000
0!
0"
#270000
1!
1"
#271000
b000011011 &
b000011011 ,
b010111001 -
b1100101100 '
b00101110111110011010011101000010 1
b00000010101 6
b00101110111110011010011101000010 3
b00000010110 7
b0101011001 .
b00101010010000011101001000110011 2
b010100 0
b01100100 /
#275000
0!
0"
#280000
1!
1"
#281000
b000110110 &
b000110110 ,
b000011011 -
b0101011001 '
b00101010010000011101001000110011 1
b00000010110 6
b00101010010000011101001000110011 3
b00000010111 7
b1101100100 .
b00110101100111111110100100101000 2
b110111 0
b01101111 /
#285000
0!
0"
#290000
1!
1"
#291000
b001101001 &
b001101001 ,
b000110110 -
b1101100100 '
b00110101100111111110100100101000 1
b00000010111 6
b00110101100111111110100100101000 3
b00000011000 7
b1001010110 .
b11111010001110101010001010001010 2
b100100 0
b01011000 /
#295000
0!
0"
#300000
1!
1"
#301000
b001101001 -
b1001010110 '
b11111010001110101010001010001010 1
b00000011000 6
b11111010001110101010001010001010 3
b00000011001 7
b1100101001 .
b00111001111110011000100101100000 2
b001110 0
b10100100 /
#302000
0#
1*
b00000000000 7
1#
b000000001 &
0*
b00000011001 7
b000000001 ,
#305000
0!
0"
#310000
1!
1"
#311000
b001010110 &
b001010110 ,
b000000001 -
b1100101001 '
b00111001111110011000100101100000 1
b00000011001 6
b00111001111110011000100101100000 3
b00000011010 7
b1101010001 .
b00111010100011001010100001000111 2
b110111 0
b10111011 /
#315000
0!
0"
#320000
1!
1"
#321000
b010001110 &
b010001110 ,
b001010110 -
b1101010001 '
b00111010100011001010100001000111 1
b00000011010 6
b00111010100011001010100001000111 3
b00000011011 7
b1010010110 .
b01101010100010101010110001011010 2
b101000 0
b01011000 /
#325000
0!
0"
#330000
1!
1"
#331000
b000010111 &
b000010111 ,
b010001110 -
b1010010110 '
b01101010100010101010110001011010 1
b00000011011 6
b01101010100010101010110001011010 3
08
b00000011100 7
09
b0100001110 .
b10000001110101001001110001100001 2
b101111 0
b00111000 /
#335000
0!
0"
#340000
1!
1"
#341000
b000010111 -
b0100001110 '
b10000001110101001001110001100001 1
b00000011100 6
b10000001110101001001110001100001 3
0;
b00000011101 7
b0010010111 .
b10111001111001110000000010010101 2
b110111 0
b01011111 /
#342000
0#
1*
b00000000000 7
1#
b010111101 &
0*
b00000011101 7
b010111101 ,
#345000
0!
0"
#350000
1!
1"
#351000
b001001101 &
b001001101 ,
b010111101 -
b0010010111 '
b10111001111001110000000010010101 1
b00000011101 6
b10111001111001110000000010010101 3
18
b00000011110 7
19
b0101011101 .
b00110101000011000100111111111010 2
b010100 0
b01110111 /
#355000
0!
0"
#360000
1!
1"
#361000
b011100111 &
b011100111 ,
b001001101 -
b0101011101 '
b00110101000011000100111111111010 1
b00000011110 6
b00110101000011000100111111111010 3
1;
b00000011111 7
b1010001101 .
b01010101001100000010101001100000 2
b101000 0
b00110100 /
#365000
0!
0"
#370000
1!
1"
#371000
b010011101 &
b010011101 ,
b011100111 -
b1010001101 '
b01010101001100000010101001100000 1
b00000011111 6
b01010101001100000010101001100000 3
08
b00000100000 7
09
b1000111000 .
b01110011100010010010011010101001 2
b011111 0
b00011110 /
#375000
0!
0"
#380000
1!
1"
#381000
b010011101 -
b1000111000 '
b01110011100010010010011010101001 1
b00000100000 6
b01110011100010010010011010101001 3
0;
b00000100001 7
b0100011101 .
b00100001110001110111110110010011 2
b101111 0
b01110111 /
#382000
0#
1*
b00000000000 7
1#
b010110101 &
0*
b00000100001 7
b010110101 ,
#385000
0!
0"
#390000
1!
1"
#391000
b001001011 &
b001001011 ,
b010110101 -
b0100011101 '
b00100001110001110111110110010011 1
b00000100001 6
b00100001110001110111110110010011 3
b00000100010 7
b0101010101 .
b11010010001011000100001010000000 2
b010100 0
b01010100 /
#395000
0!
0"
#400000
1!
1"
#401000
b001011010 &
b001011010 ,
b001001011 -
b0101010101 '
b11010010001011000100001010000000 1
b00000100010 6
b11010010001011000100001010000000 3
b00000100011 7
b1010001011 .
b00001100011001000011011101111010 2
b101000 0
b00101100 /
#405000
0!
0"
#410000
1!
1"
#411000
b000100111 &
b000100111 ,
b001011010 -
b1010001011 '
b00001100011001000011011101111010 1
b00000100011 6
b00001100011001000011011101111010 3
b00000100100 7
b1010011010 .
b00111011011000100100010011111111 2
b01101000 /
#415000
0!
0"
#420000
1!
1"
#421000
b010000110 &
b010000110 ,
b000100111 -
b1010011010 '
b00111011011000100100010011111111 1
b00000100100 6
b00111011011000100100010011111111 3
b00000100101 7
b1001000111 .
b10001000001100110011100010100010 2
b100100 0
b00011110 /
#425000
0!
0"
#430000
1!
1"
#431000
b010000110 -
b1001000111 '
b10001000001100110011100010100010 1
b00000100101 6
b10001000001100110011100010100010 3
18
b00000100110 7
19
b1011100110 .
b00111100100010111101011111101001 2
b101111 0
b10011000 /
#432000
0#
1*
b00000000000 7
1#
b001011001 &
0*
b00000100110 7
b001011001 ,
#435000
0!
0"
#440000
1!
1"
#441000
b001011000 &
b001011000 ,
b001011001 -
b1011100110 '
b00111100100010111101011111101001 1
b00000100110 6
b00111100100010111101011111101001 3
1;
b00000100111 7
b1010011001 .
b11001011010111010011100001011011 2
b101000 0
b01100100 /
#445000
0!
0"
#450000
1!
1"
#451000
b011000111 &
b011000111 ,
b001011000 -
b1010011001 '
b11001011010111010011100001011011 1
b00000100111 6
b11001011010111010011100001011011 3
08
b00000101000 7
09
b1010001100 .
b10011001110000100000110010000010 2
b11001111 /
#455000
0!
0"
#460000
1!
1"
#461000
b001000110 &
b001000110 ,
b011000111 -
b1010001100 '
b10011001110000100000110010000010 1
b00000101000 6
b10011001110000100000110010000010 3
0;
b00000101001 7
b0110000111 .
b00000110001011110111011100010011 2
b011000 0
b00011110 /
#465000
0!
0"
#470000
1!
1"
#471000
b000110101 &
b000110101 ,
b001000110 -
b0110000111 '
b00000110001011110111011100010011 1
b00000101001 6
b00000110001011110111011100010011 3
b00000101010 7
b1010100110 .
b00011011000001111000101000001100 2
b101000 0
b10011000 /
#475000
0!
0"
#480000
1!
1"
#481000
b000000001 &
b000000001 ,
b000110101 -
b1010100110 '
b00011011000001111000101000001100 1
b00000101010 6
b00011011000001111000101000001100 3
b00000101011 7
b1001010101 .
b01011111000111101000111110000010 2
b100100 0
b01010100 /
#485000
0!
0"
#490000
1!
1"
#491000
b000001000 &
b000001000 ,
b000000001 -
b1001010101 '
b01011111000111101000111110000010 1
b00000101011 6
b01011111000111101000111110000010 3
b00000101100 7
b0010101110 .
b01110100111011101100110000010101 2
b110111 0
b10111011 /
#495000
0!
0"
#500000
1!
1"
#501000
b000001000 -
b0010101110 '
b01110100111011101100110000010101 1
b00000101100 6
b01110100111011101100110000010101 3
b00000101101 7
b0010100111 .
b01100011011100101000001000010101 2
b10011111 /
#502000
0#
1*
b00000000000 7
1#
b000011011 &
0*
b00000101101 7
b000011011 ,
#505000
0!
0"
#510000
1!
1"
#511000
b000011011 -
b0010100111 '
b01100011011100101000001000010101 1
b00000101101 6
b01100011011100101000001000010101 3
b00000101110 7
b0010011011 .
b11100111110110110101111110000101 2
b01101111 /
#512000
0#
1*
b00000000000 7
1#
b000100010 &
0*
b00000101110 7
b000100010 ,
#515000
0!
0"
#520000
1!
1"
#521000
b000010101 &
b000010101 ,
b000100010 -
b0010011011 '
b11100111110110110101111110000101 1
b00000101110 6
b11100111110110110101111110000101 3
18
b00000101111 7
19
b1001101101 .
b01001000010101011110110100010100 2
b100100 0
b10110111 /
#525000
0!
0"
#530000
1!
1"
#531000
b000010101 -
b1001101101 '
b01001000010101011110110100010100 1
b00000101111 6
b01001000010101011110110100010100 3
1;
08
b00000110000 7
09
b0010010101 .
b01110111010011110110010101111011 2
b110111 0
b01010100 /
#532000
0#
1*
b00000000000 7
b110111100 &
1#
0*
b00000110000 7
b110111100 ,
#535000
0!
0"
#540000
1!
1"
#541000
0#
b000000000 &
1*
b00000000000 7
b000010101 ,
b110111100 -
b0010010101 '
b01110111010011110110010101111011 1
b00000110000 6
b01110111010011110110010101111011 3
0;
b010 =
b001110111 ,
1:
b0001010111 .
b101010 0
b11110011 /
#545000
0!
0"
#550000
1!
1"
b010 <
18
19
0*
b0101111100 .
b001001111 ,
b01 5
#551000
b001110111 -
b0001010111 '
b00000000000 6
1+
b1100010111 .
b001110 0
b01011111 /
#555000
0!
0"
#560000
1!
1"
#561000
b001001111 -
b1100010111 '
b01 4
0+
1;
08
09
b1010000101 .
b101000 0
b11101011 /
b001100101 ,
b10 5
#565000
0!
0"
#570000
1!
1"
#571000
b001100101 -
b1010000101 '
b10 4
0;
b0011100101 .
b001110 0
b10010100 /
b001111011 ,
b11 5
#575000
0!
0"
#580000
1!
1"
#581000
b001111011 -
b0011100101 '
b11 4
18
19
b1100011011 .
b01101111 /
b011 =
b00 5
#585000
0!
0"
#590000
1!
1"
b011 <
b000 =
b000000000 ,
b1010000011 .
#591000
b1100011011 '
b00 4
1;
#595000
0!
0"
#600000
1!
1"
b000 <
b11111111111111111111111111111111 2
0>
b0000000000 .
09
08
#601000
b000000000 -
b1010000011 '
#605000
0!
0"
#610000
1!
1"
#611000
b0000000000 '
0(
b11111111111111111111111111111111 1
b11111111111111111111111111111111 3
0;
#615000
0!
0"
#620000
1!
1"
#625000
0!
0"
#630000
1!
1"
#635000
0!
0"
#640000
1!
1"
#645000
0!
0"
#650000
1!
1"
#655000
0!
0"
#660000
1!
1"
#665000
0!
0"
#670000
1!
1"
#675000
0!
0"
#680000
1!
1"
#685000
0!
0"
#690000
1!
1"
#695000
0!
0"
#700000
1!
1"
#705000
0!
0"
#710000
1!
1"
#715000
0!
0"
#720000
1!
1"
#725000
0!
0"
#730000
1!
1"
#735000
0!
0"
#740000
1!
1"
#741000
1#
b100111100 &
1$
b001 =
b100111100 ,
#745000
0!
0"
#750000
1!
1"
b001 <
b00000000001 7
0:
1?
1>
b0010111001 .
b00101101111111010001000001110010 2
b110111 0
b11100111 /
#751000
b100111100 -
18
19
b1001111100 .
b11111111111111111111111111111111 2
b011010 0
b11110011 /
0$
#755000
0!
0"
#760000
1!
1"
#761000
b1001111100 '
1(
b00000000001 6
1)
1;
08
b00000000010 7
0?
09
b0110000011 .
#765000
0!
0"
#770000
1!
1"
#771000
b0110000011 '
b00000000010 6
0)
0;
18
b00000000011 7
19
b1001111100 .
#775000
0!
0"
#780000
1!
1"
#781000
0#
1*
b00000000000 7
b1001111100 '
b00000000011 6
1;
08
09
b0110000011 .
1#
b000000000 &
0*
b00000000100 7
b000000000 ,
#785000
0!
0"
#790000
1!
1"
#791000
b000000001 &
b000000001 ,
b000000000 -
b0110000011 '
b00000000100 6
0;
b00000000101 7
b0010111001 .
b00101101111111010001000001110010 2
b110111 0
b11100111 /
#795000
0!
0"
#800000
1!
1"
#801000
b000000010 &
b000000010 ,
b000000001 -
b0010111001 '
b00101101111111010001000001110010 1
b00000000101 6
b00101101111111010001000001110010 3
b00000000110 7
b0010101110 .
b11001001001000011101110110010110 2
b10111011 /
#805000
0!
0"
#810000
1!
1"
#811000
b000000011 &
b000000011 ,
b000000010 -
b0010101110 '
b11001001001000011101110110010110 1
b00000000110 6
b11001001001000011101110110010110 3
b00000000111 7
b0010101101 .
b11110111101010110111011010000000 2
b10110111 /
#815000
0!
0"
#820000
1!
1"
#821000
b000000100 &
b000000100 ,
b000000011 -
b0010101101 '
b11110111101010110111011010000000 1
b00000000111 6
b11110111101010110111011010000000 3
18
b00000001000 7
19
b1101100011 .
b01110100010001100111100111101100 2
b10001100 /
#825000
0!
0"
#830000
1!
1"
#831000
b000000100 -
b1101100011 '
b01110100010001100111100111101100 1
b00000001000 6
b01110100010001100111100111101100 3
1;
b00000001001 7
b1101010100 .
b10101110101001010010110000110011 2
b10101111 /
#832000
0#
1*
b00000000000 7
1#
b101111100 &
0*
b00000001001 7
b101111100 ,
#835000
0!
0"
#840000
1!
1"
#841000
b101111100 -
b1101010100 '
b10101110101001010010110000110011 1
b00000001001 6
b10101110101001010010110000110011 3
08
b00000001010 7
09
b0011000011 .
b001110 0
b11110011 /
#842000
0#
1*
b00000000000 7
1#
b111111011 &
0*
b00000001010 7
b111111011 ,
#845000
0!
0"
#850000
1!
1"
#851000
b111111011 -
b0011000011 '
b00000001010 6
0;
b00000001011 7
b0001011011 .
b111011 0
b01101111 /
#852000
0#
1*
b00000000000 7
1#
b111111100 &
0*
b00000001011 7
b111111100 ,
#855000
0!
0"
#860000
1!
1"
#861000
b111111100 -
b0001011011 '
b00000001011 6
b00000001100 7
b0001111100 .
b11110011 /
#862000
0#
1*
b00000000000 7
1#
b101011100 &
0*
b00000001100 7
b101011100 ,
#865000
0!
0"
#870000
1!
1"
#871000
b101011100 -
b0001111100 '
b00000001100 6
18
b00000001101 7
19
b1010111100 .
b010110 0
#872000
0#
1*
b00000000000 7
1#
b110011100 &
0*
b00000001101 7
b110011100 ,
#875000
0!
0"
#880000
1!
1"
#881000
b110011100 -
b1010111100 '
b00000001101 6
1;
b00000001110 7
b1011000011 .
b101111 0
#882000
0#
1*
b00000000000 7
1#
b101111100 &
0*
b00000001110 7
b101111100 ,
#885000
0!
0"
#890000
1!
1"
#891000
b101111100 -
b1011000011 '
b00000001110 6
08
b00000001111 7
09
b0011000011 .
b001110 0
#892000
0#
1*
b00000000000 7
1#
b000110000 &
0*
b00000001111 7
b000110000 ,
#895000
0!
0"
#900000
1!
1"
#901000
b001100001 &
b001100001 ,
b000110000 -
b0011000011 '
b00000001111 6
0;
18
b00000010000 7
19
b1001110110 .
b10011001101001111111010010010110 2
b100100 0
b11011011 /
#905000
0!
0"
#910000
1!
1"
#911000
b001001010 &
b001001010 ,
b001100001 -
b1001110110 '
b10011001101001111111010010010110 1
b00000010000 6
b10011001101001111111010010010110 3
1;
08
b00000010001 7
09
b0011010001 .
b00100011010000001100000001001011 2
b001110 0
b10111011 /
#915000
0!
0"
#920000
1!
1"
#921000
b010100000 &
b010100000 ,
b001001010 -
b0011010001 '
b00100011010000001100000001001011 1
b00000010001 6
b00100011010000001100000001001011 3
0;
b00000010010 7
b1010101010 .
b01110111001001000111000001010110 2
b101000 0
b10101000 /
#925000
0!
0"
#930000
1!
1"
#931000
b010100000 -
b1010101010 '
b01110111001001000111000001010110 1
b00000010010 6
b01110111001001000111000001010110 3
18
b00000010011 7
19
b0101111001 .
b01010100101010010111001101011001 2
b010100 0
b11100111 /
#932000
0#
1*
b00000000000 7
1#
b011110100 &
0*
b00000010011 7
b011110100 ,
#935000
0!
0"
#940000
1!
1"
#941000
b011000101 &
b011000101 ,
b011110100 -
b0101111001 '
b01010100101010010111001101011001 1
b00000010011 6
b01010100101010010111001101011001 3
1;
08
b00000010100 7
09
b1000110100 .
b10101000001100110111011000100110 2
b011111 0
b11010000 /
b1110110100 .
b111001 0
#945000
0!
0"
#950000
1!
1"
#951000
b001101000 &
b001101000 ,
b011000101 -
b1110110100 '
b10101000001100110111011000100110 1
b00000010100 6
b10101000001100110111011000100110 3
0;
b00000010101 7
b0110100101 .
b00111001101010111000000010110100 2
b011000 0
b10010100 /
#955000
0!
0"
#960000
1!
1"
#961000
b010111011 &
b010111011 ,
b001101000 -
b0110100101 '
b00111001101010111000000010110100 1
b00000010101 6
b00111001101010111000000010110100 3
18
b00000010110 7
19
b1100100111 .
b10001111010111000011010101111111 2
b001110 0
b10011111 /
#965000
0!
0"
#970000
1!
1"
#971000
b011000101 &
b011000101 ,
b010111011 -
b1100100111 '
b10001111010111000011010101111111 1
b00000010110 6
b10001111010111000011010101111111 3
1;
08
b00000010111 7
09
b0101100100 .
b10011100100001100101101010011100 2
b010100 0
b01101111 /
#975000
0!
0"
#980000
1!
1"
#981000
b000010111 &
b000010111 ,
b011000101 -
b0101100100 '
b10011100100001100101101010011100 1
b00000010111 6
b10011100100001100101101010011100 3
0;
b00000011000 7
b0110100101 .
b00010010001010110110111100001010 2
b011000 0
b10010100 /
#985000
0!
0"
#990000
1!
1"
#991000
b000010111 -
b0110100101 '
b00010010001010110110111100001010 1
b00000011000 6
b00010010001010110110111100001010 3
b00000011001 7
b0010010111 .
b01100011000101000100011110110110 2
b110111 0
b01011111 /
#992000
0#
1*
b00000000000 7
1#
b010100001 &
0*
b00000011001 7
b010100001 ,
#995000
0!
0"
#1000000
1!
1"
#1001000
b001000011 &
b001000011 ,
b010100001 -
b0010010111 '
b01100011000101000100011110110110 1
b00000011001 6
b01100011000101000100011110110110 3
18
b00000011010 7
19
b0101101110 .
b10000011101100001001000110000000 2
b010100 0
b10111011 /
#1005000
0!
0"
#1010000
1!
1"
#1011000
b011110100 &
b011110100 ,
b001000011 -
b0101101110 '
b10000011101100001001000110000000 1
b00000011010 6
b10000011101100001001000110000000 3
1;
b00000011011 7
b1010100011 .
b00000010111011100010001110011011 2
b101000 0
b10001100 /
#1015000
0!
0"
#1020000
1!
1"
#1021000
b011110100 -
b1010100011 '
b00000010111011100010001110011011 1
b00000011011 6
b00000010111011100010001110011011 3
08
b00000011100 7
09
b1000110100 .
b11011101000011111001001011101010 2
b011111 0
b11010000 /
b1110110100 .
b111001 0
#1022000
0#
1*
b00000000000 7
1#
b011110110 &
0*
b00000011100 7
b011110110 ,
#1025000
0!
0"
#1030000
1!
1"
#1031000
b001111110 &
b001111110 ,
b011110110 -
b1110110100 '
b11011101000011111001001011101010 1
b00000011100 6
b11011101000011111001001011101010 3
0;
18
b00000011101 7
19
b0111010110 .
b00010100110111000101001111011101 2
b011111 0
b01011000 /
#1035000
0!
0"
#1040000
1!
1"
#1041000
b000101010 &
b000101010 ,
b001111110 -
b0111010110 '
b00010100110111000101001111011101 1
b00000011101 6
b00010100110111000101001111011101 3
1;
08
b00000011110 7
09
b0011100001 .
b01001111110010110010111000000001 2
b001110 0
b01111011 /
#1045000
0!
0"
#1050000
1!
1"
#1051000
b010110101 &
b010110101 ,
b000101010 -
b0011100001 '
b01001111110010110010111000000001 1
b00000011110 6
b01001111110010110010111000000001 3
0;
b00000011111 7
b1001101010 .
b10101100111100110011001001101110 2
b100100 0
b10101000 /
#1055000
0!
0"
#1060000
1!
1"
#1061000
b001011110 &
b001011110 ,
b010110101 -
b1001101010 '
b10101100111100110011001001101110 1
b00000011111 6
b10101100111100110011001001101110 3
b00000100000 7
b0101010101 .
b00010001101011011111100001101110 2
b010100 0
b01010100 /
#1065000
0!
0"
#1070000
1!
1"
#1071000
b011001001 &
b011001001 ,
b001011110 -
b0101010101 '
b00010001101011011111100001101110 1
b00000100000 6
b00010001101011011111100001101110 3
18
b00000100001 7
19
b1010011110 .
b00100110110010001001110101010100 2
b101000 0
b01111011 /
#1075000
0!
0"
#1080000
1!
1"
#1081000
b000110110 &
b000110110 ,
b011001001 -
b1010011110 '
b00100110110010001001110101010100 1
b00000100001 6
b00100110110010001001110101010100 3
1;
b00000100010 7
b0110101001 .
b10001110100110000010011101100100 2
b011000 0
b10100100 /
#1085000
0!
0"
#1090000
1!
1"
#1091000
b000110110 -
b0110101001 '
b10001110100110000010011101100100 1
b00000100010 6
b10001110100110000010011101100100 3
b00000100011 7
b1001010110 .
b10000101111010111010100011111111 2
b100100 0
b01011000 /
#1092000
0#
1*
b00000000000 7
1#
b010000011 &
0*
b00000100011 7
b010000011 ,
#1095000
0!
0"
#1100000
1!
1"
#1101000
b010000011 -
b1001010110 '
b10000101111010111010100011111111 1
b00000100011 6
b10000101111010111010100011111111 3
08
b00000100100 7
09
b0100100011 .
b01011001001101101101011010111111 2
b101111 0
b10001100 /
#1102000
0#
1*
b00000000000 7
1#
b011011111 &
0*
b00000100100 7
b011011111 ,
#1105000
0!
0"
#1110000
1!
1"
#1111000
b010111011 &
b010111011 ,
b011011111 -
b0100100011 '
b01011001001101101101011010111111 1
b00000100100 6
b01011001001101101101011010111111 3
0;
18
b00000100101 7
19
b0110110101 .
b01001101111010110101011110001110 2
b011000 0
b11010111 /
#1115000
0!
0"
#1120000
1!
1"
#1121000
b001000010 &
b001000010 ,
b010111011 -
b0110110101 '
b01001101111010110101011110001110 1
b00000100101 6
b01001101111010110101011110001110 3
1;
08
b00000100110 7
09
b0101100100 .
b01010110111111100010111101110100 2
b010100 0
b01101111 /
#1125000
0!
0"
#1130000
1!
1"
#1131000
b001001000 &
b001001000 ,
b001000010 -
b0101100100 '
b01010110111111100010111101110100 1
b00000100110 6
b01010110111111100010111101110100 3
0;
18
b00000100111 7
19
b1010101101 .
b11001111111011000110101110110110 2
b101000 0
b10110111 /
#1135000
0!
0"
#1140000
1!
1"
#1141000
b001101101 &
b001101101 ,
b001001000 -
b1010101101 '
b11001111111011000110101110110110 1
b00000100111 6
b11001111111011000110101110110110 3
1;
08
b00000101000 7
09
b1010011000 .
b01011010110010100011001101110000 2
b10011111 /
#1145000
0!
0"
#1150000
1!
1"
#1151000
b001001011 &
b001001011 ,
b001101101 -
b1010011000 '
b01011010110010100011001101110000 1
b00000101000 6
b01011010110010100011001101110000 3
0;
b00000101001 7
b0011001101 .
b01100011010111001010011011101010 2
b001110 0
b00110100 /
#1155000
0!
0"
#1160000
1!
1"
#1161000
b001001011 -
b0011001101 '
b01100011010111001010011011101010 1
b00000101001 6
b01100011010111001010011011101010 3
b00000101010 7
b1010001011 .
b10100001101100101100111111011000 2
b101000 0
b00101100 /
#1162000
0#
1*
b00000000000 7
1#
b001111000 &
0*
b00000101010 7
b001111000 ,
#1165000
0!
0"
#1170000
1!
1"
